<svg width="22" height="22" viewBox="0 0 22 22" fill="none" xmlns="http://www.w3.org/2000/svg">
  <path d="M17.4166 19.25L10.9999 15.5833L4.58325 19.25V4.58333C4.58325 4.0971 4.77641 3.63079 5.12022 3.28697C5.46404 2.94315 5.93036 2.75 6.41659 2.75H15.5833C16.0695 2.75 16.5358 2.94315 16.8796 3.28697C17.2234 3.63079 17.4166 4.0971 17.4166 4.58333V19.25Z" stroke="white" stroke-width="1.5" stroke-linecap="round" stroke-linejoin="round"/>
  <path d="M11 6.41669V11.9167" stroke="white" stroke-width="1.5" stroke-linecap="round" stroke-linejoin="round"/>
  <path d="M13.75 9.16669H8.25" stroke="white" stroke-width="1.5" stroke-linecap="round" stroke-linejoin="round"/>
</svg>
