<svg width="16" height="16" viewBox="0 0 16 16" fill="none" xmlns="http://www.w3.org/2000/svg">
  <path d="M12.6667 2.66669H3.33333C2.59695 2.66669 2 3.26364 2 4.00002V13.3334C2 14.0697 2.59695 14.6667 3.33333 14.6667H12.6667C13.403 14.6667 14 14.0697 14 13.3334V4.00002C14 3.26364 13.403 2.66669 12.6667 2.66669Z" stroke="url(#gradient0)" stroke-width="1.5" stroke-linecap="round" stroke-linejoin="round"/>
  <path d="M10.6667 1.33331V3.99998" stroke="url(#gradient1)" stroke-width="1.5" stroke-linecap="round" stroke-linejoin="round"/>
  <path d="M5.33325 1.33331V3.99998" stroke="url(#gradient2)" stroke-width="1.5" stroke-linecap="round" stroke-linejoin="round"/>
  <path d="M2 6.66669H14" stroke="url(#gradient3)" stroke-width="1.5" stroke-linecap="round" stroke-linejoin="round"/>
  <defs>
    <linearGradient id="gradient0" x1="2" y1="2.66669" x2="14.8472" y2="3.65509" gradientUnits="userSpaceOnUse">
      <stop stop-color="#6a3093"/>
      <stop offset="1" stop-color="#a044ff"/>
    </linearGradient>
    <linearGradient id="gradient1" x1="10.6667" y1="1.33331" x2="11.7428" y2="1.36436" gradientUnits="userSpaceOnUse">
      <stop stop-color="#6a3093"/>
      <stop offset="1" stop-color="#a044ff"/>
    </linearGradient>
    <linearGradient id="gradient2" x1="5.33325" y1="1.33331" x2="6.40929" y2="1.36436" gradientUnits="userSpaceOnUse">
      <stop stop-color="#6a3093"/>
      <stop offset="1" stop-color="#a044ff"/>
    </linearGradient>
    <linearGradient id="gradient3" x1="2" y1="6.66669" x2="8.97669" y2="13.1077" gradientUnits="userSpaceOnUse">
      <stop stop-color="#6a3093"/>
      <stop offset="1" stop-color="#a044ff"/>
    </linearGradient>
  </defs>
</svg>
