<svg id="list" width="16" height="16" viewBox="0 0 16 16" fill="none" xmlns="http://www.w3.org/2000/svg">
  <path d="M5.33325 4H13.9999" stroke-width="1.5" stroke-linecap="round" stroke-linejoin="round"/>
  <path d="M5.33325 8H13.9999" stroke-width="1.5" stroke-linecap="round" stroke-linejoin="round"/>
  <path d="M5.33325 12H13.9999" stroke-width="1.5" stroke-linecap="round" stroke-linejoin="round"/>
  <path d="M2 4H2.00646" stroke-width="1.5" stroke-linecap="round" stroke-linejoin="round"/>
  <path d="M2 8H2.00646" stroke-width="1.5" stroke-linecap="round" stroke-linejoin="round"/>
  <path d="M2 12H2.00646" stroke-width="1.5" stroke-linecap="round" stroke-linejoin="round"/>
</svg>
